[gd_scene load_steps=5 format=2]

[ext_resource path="res://Tiles/LeftSlider.gd" type="Script" id=1]
[ext_resource path="res://Levels/WorldObjects.png" type="Texture" id=2]
[ext_resource path="res://Sounds/slide.wav" type="AudioStream" id=3]

[sub_resource type="RectangleShape2D" id=1]
extents = Vector2( 12, 12 )

[node name="LeftSlider" type="Area2D"]
script = ExtResource( 1 )

[node name="Sprite" type="Sprite" parent="."]
texture = ExtResource( 2 )
region_enabled = true
region_rect = Rect2( 32, 32, 32, 32 )
region_filter_clip = true
__meta__ = {
"_editor_description_": "32"
}

[node name="CollisionShape2D" type="CollisionShape2D" parent="."]
shape = SubResource( 1 )

[node name="SliderSound" type="AudioStreamPlayer" parent="."]
stream = ExtResource( 3 )
volume_db = -4.379
