[gd_scene format=2]

[node name="Control" type="Control"]
anchor_right = 1.0
anchor_bottom = 1.0
margin_right = -512.0
margin_bottom = -88.0
__meta__ = {
"_edit_use_anchors_": false
}

[node name="TextureRect" type="TextureRect" parent="."]
margin_right = 40.0
margin_bottom = 40.0
__meta__ = {
"_edit_use_anchors_": false
}
