[gd_scene load_steps=5 format=2]

[ext_resource path="res://Trinket/LeftArrow.gd" type="Script" id=1]
[ext_resource path="res://Levels/WorldObjects.png" type="Texture" id=2]
[ext_resource path="res://Sounds/arrow.wav" type="AudioStream" id=3]

[sub_resource type="RectangleShape2D" id=1]
extents = Vector2( 12, 12 )

[node name="LeftArrow" type="Area2D"]
script = ExtResource( 1 )

[node name="Sprite2" type="Sprite" parent="."]
texture = ExtResource( 2 )
region_enabled = true
region_rect = Rect2( 96, 0, 32, 32 )

[node name="CollisionShape2D" type="CollisionShape2D" parent="."]
position = Vector2( -0.073101, 0 )
shape = SubResource( 1 )

[node name="ArrowSound" type="AudioStreamPlayer" parent="."]
stream = ExtResource( 3 )
volume_db = -4.379
[connection signal="area_entered" from="." to="." method="_on_LeftArrow_area_entered"]
[connection signal="finished" from="ArrowSound" to="." method="_on_ArrowSound_finished"]
