[gd_scene load_steps=21 format=2]

[ext_resource path="res://Levels/level_2_5.gd" type="Script" id=1]
[ext_resource path="res://HUD/LevelClearPopup.tscn" type="PackedScene" id=2]
[ext_resource path="res://Trinket/Coin.tscn" type="PackedScene" id=4]
[ext_resource path="res://Tiles/UpSlider.tscn" type="PackedScene" id=5]
[ext_resource path="res://Tiles/DownSlider.tscn" type="PackedScene" id=7]
[ext_resource path="res://Tiles/RightSlider.tscn" type="PackedScene" id=8]
[ext_resource path="res://HUD/HUD.tscn" type="PackedScene" id=9]
[ext_resource path="res://Player/Player.tscn" type="PackedScene" id=10]
[ext_resource path="res://Tiles/Teleporter.tscn" type="PackedScene" id=11]
[ext_resource path="res://Levels/WorldObjects.png" type="Texture" id=12]
[ext_resource path="res://Textures/bg512x416.png" type="Texture" id=13]

[sub_resource type="ConvexPolygonShape2D" id=1]
points = PoolVector2Array( 0, 0, 32, 0, 32, 32, 0, 32 )

[sub_resource type="ConvexPolygonShape2D" id=2]
points = PoolVector2Array( 0, 0, 32, 0, 32, 32, 0, 32 )

[sub_resource type="ConvexPolygonShape2D" id=3]
points = PoolVector2Array( 0, 0, 32, 0, 32, 32, 0, 32 )

[sub_resource type="ConvexPolygonShape2D" id=4]
points = PoolVector2Array( 0, 0, 32, 0, 32, 32, 0, 32 )

[sub_resource type="ConvexPolygonShape2D" id=5]
points = PoolVector2Array( 0, 0, 32, 0, 32, 32, 0, 32 )

[sub_resource type="ConvexPolygonShape2D" id=6]
points = PoolVector2Array( 0, 0, 32, 0, 32, 32, 0, 32 )

[sub_resource type="ConvexPolygonShape2D" id=7]
points = PoolVector2Array( 0, 0, 32, 0, 32, 32, 0, 32 )

[sub_resource type="ConvexPolygonShape2D" id=8]
points = PoolVector2Array( 0, 0, 32, 0, 32, 32, 0, 32 )

[sub_resource type="TileSet" id=9]
0/name = "WorldObjects.png 0"
0/texture = ExtResource( 12 )
0/tex_offset = Vector2( 0, 0 )
0/modulate = Color( 1, 1, 1, 1 )
0/region = Rect2( 0, 0, 32, 32 )
0/tile_mode = 0
0/occluder_offset = Vector2( 0, 0 )
0/navigation_offset = Vector2( 0, 0 )
0/shape_offset = Vector2( 0, 0 )
0/shape_transform = Transform2D( 1, 0, 0, 1, 0, 0 )
0/shape_one_way = false
0/shape_one_way_margin = 0.0
0/shapes = [  ]
0/z_index = 0
1/name = "WorldObjects.png 1"
1/texture = ExtResource( 12 )
1/tex_offset = Vector2( 0, 0 )
1/modulate = Color( 1, 1, 1, 1 )
1/region = Rect2( 32, 0, 32, 32 )
1/tile_mode = 0
1/occluder_offset = Vector2( 0, 0 )
1/navigation_offset = Vector2( 0, 0 )
1/shape_offset = Vector2( 0, 0 )
1/shape_transform = Transform2D( 1, 0, 0, 1, 0, 0 )
1/shape_one_way = false
1/shape_one_way_margin = 0.0
1/shapes = [  ]
1/z_index = 0
2/name = "WorldObjects.png 2"
2/texture = ExtResource( 12 )
2/tex_offset = Vector2( 0, 0 )
2/modulate = Color( 1, 1, 1, 1 )
2/region = Rect2( 64, 0, 32, 32 )
2/tile_mode = 0
2/occluder_offset = Vector2( 0, 0 )
2/navigation_offset = Vector2( 0, 0 )
2/shape_offset = Vector2( 0, 0 )
2/shape_transform = Transform2D( 1, 0, 0, 1, 0, 0 )
2/shape_one_way = false
2/shape_one_way_margin = 0.0
2/shapes = [  ]
2/z_index = 0
3/name = "WorldObjects.png 3"
3/texture = ExtResource( 12 )
3/tex_offset = Vector2( 0, 0 )
3/modulate = Color( 1, 1, 1, 1 )
3/region = Rect2( 96, 0, 32, 32 )
3/tile_mode = 0
3/occluder_offset = Vector2( 0, 0 )
3/navigation_offset = Vector2( 0, 0 )
3/shape_offset = Vector2( 0, 0 )
3/shape_transform = Transform2D( 1, 0, 0, 1, 0, 0 )
3/shape_one_way = false
3/shape_one_way_margin = 0.0
3/shapes = [  ]
3/z_index = 0
4/name = "WorldObjects.png 4"
4/texture = ExtResource( 12 )
4/tex_offset = Vector2( 0, 0 )
4/modulate = Color( 1, 1, 1, 1 )
4/region = Rect2( 0, 32, 32, 32 )
4/tile_mode = 0
4/occluder_offset = Vector2( 0, 0 )
4/navigation_offset = Vector2( 0, 0 )
4/shape_offset = Vector2( 0, 0 )
4/shape_transform = Transform2D( 1, 0, 0, 1, 0, 0 )
4/shape_one_way = false
4/shape_one_way_margin = 0.0
4/shapes = [  ]
4/z_index = 0
5/name = "WorldObjects.png 5"
5/texture = ExtResource( 12 )
5/tex_offset = Vector2( 0, 0 )
5/modulate = Color( 1, 1, 1, 1 )
5/region = Rect2( 32, 32, 32, 32 )
5/tile_mode = 0
5/occluder_offset = Vector2( 0, 0 )
5/navigation_offset = Vector2( 0, 0 )
5/shape_offset = Vector2( 0, 0 )
5/shape_transform = Transform2D( 1, 0, 0, 1, 0, 0 )
5/shape_one_way = false
5/shape_one_way_margin = 0.0
5/shapes = [  ]
5/z_index = 0
6/name = "WorldObjects.png 6"
6/texture = ExtResource( 12 )
6/tex_offset = Vector2( 0, 0 )
6/modulate = Color( 1, 1, 1, 1 )
6/region = Rect2( 64, 32, 32, 32 )
6/tile_mode = 0
6/occluder_offset = Vector2( 0, 0 )
6/navigation_offset = Vector2( 0, 0 )
6/shape_offset = Vector2( 0, 0 )
6/shape_transform = Transform2D( 1, 0, 0, 1, 0, 0 )
6/shape_one_way = false
6/shape_one_way_margin = 0.0
6/shapes = [  ]
6/z_index = 0
7/name = "WorldObjects.png 7"
7/texture = ExtResource( 12 )
7/tex_offset = Vector2( 0, 0 )
7/modulate = Color( 1, 1, 1, 1 )
7/region = Rect2( 96, 32, 32, 32 )
7/tile_mode = 0
7/occluder_offset = Vector2( 0, 0 )
7/navigation_offset = Vector2( 0, 0 )
7/shape_offset = Vector2( 0, 0 )
7/shape_transform = Transform2D( 1, 0, 0, 1, 0, 0 )
7/shape_one_way = false
7/shape_one_way_margin = 0.0
7/shapes = [  ]
7/z_index = 0
8/name = "WorldObjects.png 8"
8/texture = ExtResource( 12 )
8/tex_offset = Vector2( 0, 0 )
8/modulate = Color( 1, 1, 1, 1 )
8/region = Rect2( 0, 64, 32, 32 )
8/tile_mode = 0
8/occluder_offset = Vector2( 0, 0 )
8/navigation_offset = Vector2( 0, 0 )
8/shape_offset = Vector2( 0, 0 )
8/shape_transform = Transform2D( 1, 0, 0, 1, 0, 0 )
8/shape = SubResource( 7 )
8/shape_one_way = false
8/shape_one_way_margin = 1.0
8/shapes = [ {
"autotile_coord": Vector2( 0, 0 ),
"one_way": false,
"one_way_margin": 1.0,
"shape": SubResource( 7 ),
"shape_transform": Transform2D( 1, 0, 0, 1, 0, 0 )
} ]
8/z_index = 0
9/name = "WorldObjects.png 9"
9/texture = ExtResource( 12 )
9/tex_offset = Vector2( 0, 0 )
9/modulate = Color( 1, 1, 1, 1 )
9/region = Rect2( 32, 64, 32, 32 )
9/tile_mode = 0
9/occluder_offset = Vector2( 0, 0 )
9/navigation_offset = Vector2( 0, 0 )
9/shape_offset = Vector2( 0, 0 )
9/shape_transform = Transform2D( 1, 0, 0, 1, 0, 0 )
9/shape = SubResource( 8 )
9/shape_one_way = false
9/shape_one_way_margin = 1.0
9/shapes = [ {
"autotile_coord": Vector2( 0, 0 ),
"one_way": false,
"one_way_margin": 1.0,
"shape": SubResource( 8 ),
"shape_transform": Transform2D( 1, 0, 0, 1, 0, 0 )
} ]
9/z_index = 0
10/name = "WorldObjects.png 10"
10/texture = ExtResource( 12 )
10/tex_offset = Vector2( 0, 0 )
10/modulate = Color( 1, 1, 1, 1 )
10/region = Rect2( 64, 64, 32, 32 )
10/tile_mode = 0
10/occluder_offset = Vector2( 0, 0 )
10/navigation_offset = Vector2( 0, 0 )
10/shape_offset = Vector2( 0, 0 )
10/shape_transform = Transform2D( 1, 0, 0, 1, 0, 0 )
10/shape = SubResource( 1 )
10/shape_one_way = false
10/shape_one_way_margin = 1.0
10/shapes = [ {
"autotile_coord": Vector2( 0, 0 ),
"one_way": false,
"one_way_margin": 1.0,
"shape": SubResource( 1 ),
"shape_transform": Transform2D( 1, 0, 0, 1, 0, 0 )
} ]
10/z_index = 0
11/name = "WorldObjects.png 11"
11/texture = ExtResource( 12 )
11/tex_offset = Vector2( 0, 0 )
11/modulate = Color( 1, 1, 1, 1 )
11/region = Rect2( 96, 64, 32, 32 )
11/tile_mode = 0
11/occluder_offset = Vector2( 0, 0 )
11/navigation_offset = Vector2( 0, 0 )
11/shape_offset = Vector2( 0, 0 )
11/shape_transform = Transform2D( 1, 0, 0, 1, 0, 0 )
11/shape = SubResource( 2 )
11/shape_one_way = false
11/shape_one_way_margin = 1.0
11/shapes = [ {
"autotile_coord": Vector2( 0, 0 ),
"one_way": false,
"one_way_margin": 1.0,
"shape": SubResource( 2 ),
"shape_transform": Transform2D( 1, 0, 0, 1, 0, 0 )
} ]
11/z_index = 0
12/name = "WorldObjects.png 12"
12/texture = ExtResource( 12 )
12/tex_offset = Vector2( 0, 0 )
12/modulate = Color( 1, 1, 1, 1 )
12/region = Rect2( 0, 96, 32, 32 )
12/tile_mode = 0
12/occluder_offset = Vector2( 0, 0 )
12/navigation_offset = Vector2( 0, 0 )
12/shape_offset = Vector2( 0, 0 )
12/shape_transform = Transform2D( 1, 0, 0, 1, 0, 0 )
12/shape = SubResource( 3 )
12/shape_one_way = false
12/shape_one_way_margin = 1.0
12/shapes = [ {
"autotile_coord": Vector2( 0, 0 ),
"one_way": false,
"one_way_margin": 1.0,
"shape": SubResource( 3 ),
"shape_transform": Transform2D( 1, 0, 0, 1, 0, 0 )
} ]
12/z_index = 0
13/name = "WorldObjects.png 13"
13/texture = ExtResource( 12 )
13/tex_offset = Vector2( 0, 0 )
13/modulate = Color( 1, 1, 1, 1 )
13/region = Rect2( 32, 96, 32, 32 )
13/tile_mode = 0
13/occluder_offset = Vector2( 0, 0 )
13/navigation_offset = Vector2( 0, 0 )
13/shape_offset = Vector2( 0, 0 )
13/shape_transform = Transform2D( 1, 0, 0, 1, 0, 0 )
13/shape = SubResource( 4 )
13/shape_one_way = false
13/shape_one_way_margin = 1.0
13/shapes = [ {
"autotile_coord": Vector2( 0, 0 ),
"one_way": false,
"one_way_margin": 1.0,
"shape": SubResource( 4 ),
"shape_transform": Transform2D( 1, 0, 0, 1, 0, 0 )
} ]
13/z_index = 0
14/name = "WorldObjects.png 14"
14/texture = ExtResource( 12 )
14/tex_offset = Vector2( 0, 0 )
14/modulate = Color( 1, 1, 1, 1 )
14/region = Rect2( 64, 96, 32, 32 )
14/tile_mode = 0
14/occluder_offset = Vector2( 0, 0 )
14/navigation_offset = Vector2( 0, 0 )
14/shape_offset = Vector2( 0, 0 )
14/shape_transform = Transform2D( 1, 0, 0, 1, 0, 0 )
14/shape = SubResource( 5 )
14/shape_one_way = false
14/shape_one_way_margin = 1.0
14/shapes = [ {
"autotile_coord": Vector2( 0, 0 ),
"one_way": false,
"one_way_margin": 1.0,
"shape": SubResource( 5 ),
"shape_transform": Transform2D( 1, 0, 0, 1, 0, 0 )
} ]
14/z_index = 0
15/name = "WorldObjects.png 15"
15/texture = ExtResource( 12 )
15/tex_offset = Vector2( 0, 0 )
15/modulate = Color( 1, 1, 1, 1 )
15/region = Rect2( 96, 96, 32, 32 )
15/tile_mode = 0
15/occluder_offset = Vector2( 0, 0 )
15/navigation_offset = Vector2( 0, 0 )
15/shape_offset = Vector2( 0, 0 )
15/shape_transform = Transform2D( 1, 0, 0, 1, 0, 0 )
15/shape = SubResource( 6 )
15/shape_one_way = false
15/shape_one_way_margin = 1.0
15/shapes = [ {
"autotile_coord": Vector2( 0, 0 ),
"one_way": false,
"one_way_margin": 1.0,
"shape": SubResource( 6 ),
"shape_transform": Transform2D( 1, 0, 0, 1, 0, 0 )
} ]
15/z_index = 0

[node name="MainNode" type="Node2D"]
script = ExtResource( 1 )

[node name="Sprite" type="Sprite" parent="."]
texture = ExtResource( 13 )
centered = false

[node name="TileMap" type="TileMap" parent="."]
tile_set = SubResource( 9 )
cell_size = Vector2( 32, 32 )
format = 1
tile_data = PoolIntArray( 131074, -1610612728, 0, 131075, 1610612748, 0, 131076, 1610612748, 0, 131077, 1610612748, 0, 131078, 1610612748, 0, 131079, 1610612748, 0, 131080, -1073741810, 0, 131081, -1073741810, 0, 131082, -1073741810, 0, 131083, -1073741810, 0, 131084, -1073741810, 0, 131085, -1073741814, 0, 196610, -1610612724, 0, 196611, 7, 0, 196612, 7, 0, 196613, 7, 0, 196614, 7, 0, 196615, 7, 0, 196616, 1610612750, 0, 196617, 1610612745, 0, 196618, -1073741815, 0, 196619, 1610612745, 0, 196620, -1073741815, 0, 196621, 14, 0, 262146, -1610612724, 0, 262147, 7, 0, 262148, 7, 0, 262149, -1610612729, 0, 262150, 7, 0, 262151, 7, 0, 262152, 1610612750, 0, 262153, 9, 0, 262154, -1610612722, 0, 262155, -1610612722, 0, 262156, -1610612722, 0, 262157, 14, 0, 327682, -1610612724, 0, 327683, 7, 0, 327684, 7, 0, 327685, 7, 0, 327686, 7, 0, 327687, 7, 0, 327688, 1610612750, 0, 327689, 14, 0, 327690, 7, 0, 327691, 7, 0, 327692, 7, 0, 327693, -1073741812, 0, 393218, 1610612750, 0, 393219, -1073741810, 0, 393220, -1073741814, 0, 393221, 7, 0, 393222, 7, 0, 393223, 7, 0, 393224, 1610612750, 0, 393225, 14, 0, 393226, 7, 0, 393227, -1073741817, 0, 393228, 7, 0, 393229, -1073741812, 0, 458754, 1610612750, 0, 458755, -1610612727, 0, 458756, -1073741815, 0, 458757, -1073741810, 0, 458758, -1073741810, 0, 458759, -1073741810, 0, 458760, 1610612745, 0, 458761, 14, 0, 458762, 7, 0, 458763, 7, 0, 458764, 7, 0, 458765, -1073741812, 0, 524290, -1610612726, 0, 524291, -1610612722, 0, 524292, -1610612722, 0, 524293, -1610612722, 0, 524294, -1610612722, 0, 524295, -1610612722, 0, 524296, -1610612722, 0, 524297, -1610612722, 0, 524298, 1610612748, 0, 524299, 1610612748, 0, 524300, 12, 0, 524301, -1073741816, 0 )

[node name="CoinA" parent="TileMap" instance=ExtResource( 4 )]
position = Vector2( 113.714, 116.957 )

[node name="CoinB" parent="TileMap" instance=ExtResource( 4 )]
position = Vector2( 177.714, 114.957 )

[node name="CoinC" parent="TileMap" instance=ExtResource( 4 )]
position = Vector2( 240.714, 113.957 )

[node name="CoinD" parent="TileMap" instance=ExtResource( 4 )]
position = Vector2( 404.714, 245.957 )

[node name="CoinE" parent="TileMap" instance=ExtResource( 4 )]
position = Vector2( 337.714, 241.957 )

[node name="Teleporter1" parent="TileMap" instance=ExtResource( 11 )]
position = Vector2( 145, 148 )

[node name="Teleporter2" parent="TileMap" instance=ExtResource( 11 )]
position = Vector2( 368, 208 )

[node name="DownSlider1" parent="TileMap" instance=ExtResource( 7 )]
position = Vector2( 144, 114 )

[node name="DownSlider2" parent="TileMap" instance=ExtResource( 7 )]
position = Vector2( 339, 209 )

[node name="DownSlider3" parent="TileMap" instance=ExtResource( 7 )]
position = Vector2( 403, 211 )

[node name="UpSlider1" parent="TileMap" instance=ExtResource( 5 )]
position = Vector2( 112, 146 )

[node name="UpSlider2" parent="TileMap" instance=ExtResource( 5 )]
position = Vector2( 177, 146 )

[node name="UpSlider3" parent="TileMap" instance=ExtResource( 5 )]
position = Vector2( 370, 244 )

[node name="RightSlider1" parent="TileMap" instance=ExtResource( 8 )]
position = Vector2( 208, 114 )

[node name="HUD_holder" type="MarginContainer" parent="."]
margin_top = 275.0
margin_right = 512.0
margin_bottom = 416.0
rect_min_size = Vector2( 0, 140 )
size_flags_horizontal = 3
__meta__ = {
"_edit_use_anchors_": false
}

[node name="HUD" parent="HUD_holder" instance=ExtResource( 9 )]
anchor_right = 0.0
anchor_bottom = 0.0
margin_right = 512.0
margin_bottom = 141.0

[node name="Player" parent="." instance=ExtResource( 10 )]
position = Vector2( 21, 26.5243 )

[node name="LevelClearPopup" parent="." instance=ExtResource( 2 )]
